date,real,nominal
1927-12-01,298.38,17.660
1928-01-01,296.86,17.570
1928-02-01,295.03,17.260
1928-03-01,329.55,19.280
1928-04-01,337.59,19.750
1928-05-01,339.88,20.000
1928-06-01,327.16,19.140
1928-07-01,332.12,19.430
1928-08-01,356.73,20.870
1928-09-01,357.18,21.140
1928-10-01,368.43,21.680
1928-11-01,412.61,24.280
1928-12-01,416.21,24.350
1929-01-01,439.97,25.740
1929-02-01,437.41,25.590
1929-03-01,438.96,25.530
1929-04-01,448.66,25.940
1929-05-01,426.93,24.830
1929-06-01,468.52,27.410
1929-07-01,487.96,28.880
1929-08-01,535.77,31.710
1929-09-01,509.58,30.160
1929-10-01,408.04,24.150
1929-11-01,353.46,20.920
1929-12-01,364.52,21.450
1930-01-01,389.55,22.790
1930-02-01,400.28,23.280
1930-03-01,417.70,24.150
1930-04-01,428.13,24.900
1930-05-01,423.58,24.490
1930-06-01,355.98,20.460
1930-07-01,373.47,21.210
1930-08-01,378.57,21.370
1930-09-01,327.33,18.590
1930-10-01,300.09,16.940
1930-11-01,295.33,16.570
1930-12-01,278.50,15.340
1931-01-01,295.78,16.090
1931-02-01,333.82,17.930
1931-03-01,312.72,16.690
1931-04-01,284.57,15.090
1931-05-01,248.73,13.020
1931-06-01,287.06,14.830
1931-07-01,265.77,13.730
1931-08-01,268.29,13.860
1931-09-01,189.21,9.710
1931-10-01,206.57,10.530
1931-11-01,188.90,9.500
1931-12-01,162.56,8.120
1932-01-01,161.27,7.890
1932-02-01,171.85,8.290
1932-03-01,152.62,7.310
1932-04-01,122.59,5.830
1932-05-01,95.37,4.470
1932-06-01,95.21,4.430
1932-07-01,131.10,6.100
1932-08-01,181.66,8.390
1932-09-01,176.25,8.080
1932-10-01,152.96,6.960
1932-11-01,145.04,6.550
1932-12-01,153.74,6.890
1933-01-01,157.25,6.940
1933-02-01,130.26,5.660
1933-03-01,135.71,5.850
1933-04-01,193.01,8.320
1933-05-01,223.63,9.640
1933-06-01,251.09,10.910
1933-07-01,222.01,9.950
1933-08-01,245.58,11.090
1933-09-01,217.68,9.830
1933-10-01,198.41,8.960
1933-11-01,218.78,9.880
1933-12-01,223.65,10.100
1934-01-01,247.35,11.170
1934-02-01,236.47,10.760
1934-03-01,236.25,10.750
1934-04-01,229.88,10.460
1934-05-01,211.20,9.610
1934-06-01,213.99,9.810
1934-07-01,189.34,8.680
1934-08-01,199.59,9.150
1934-09-01,195.58,9.100
1934-10-01,190.75,8.810
1934-11-01,206.56,9.540
1934-12-01,207.22,9.500
1935-01-01,195.58,9.100
1935-02-01,186.47,8.740
1935-03-01,180.71,8.470
1935-04-01,196.56,9.280
1935-05-01,202.91,9.580
1935-06-01,218.26,10.230
1935-07-01,236.39,11.080
1935-08-01,241.51,11.320
1935-09-01,247.27,11.590
1935-10-01,265.83,12.460
1935-11-01,274.29,12.950
1935-12-01,284.46,13.430
1936-01-01,303.10,14.310
1936-02-01,308.18,14.550
1936-03-01,318.32,14.920
1936-04-01,293.78,13.770
1936-05-01,307.22,14.400
1936-06-01,314.33,14.840
1936-07-01,333.29,15.850
1936-08-01,333.84,15.990
1936-09-01,334.26,16.010
1936-10-01,359.31,17.210
1936-11-01,360.77,17.280
1936-12-01,358.68,17.180
1937-01-01,369.62,17.830
1937-02-01,375.01,18.090
1937-03-01,368.87,17.920
1937-04-01,335.83,16.430
1937-05-01,330.05,16.260
1937-06-01,312.59,15.400
1937-07-01,342.28,16.980
1937-08-01,323.33,16.040
1937-09-01,275.48,13.760
1937-10-01,247.45,12.360
1937-11-01,223.96,11.110
1937-12-01,214.14,10.550
1938-01-01,220.04,10.690
1938-02-01,235.08,11.340
1938-03-01,176.21,8.500
1938-04-01,199.66,9.700
1938-05-01,192.17,9.270
1938-06-01,239.64,11.560
1938-07-01,257.05,12.400
1938-08-01,250.00,12.060
1938-09-01,253.74,12.240
1938-10-01,274.96,13.170
1938-11-01,265.78,12.730
1938-12-01,275.80,13.210
1939-01-01,256.80,12.300
1939-02-01,267.06,12.700
1939-03-01,230.89,10.980
1939-04-01,231.30,10.920
1939-05-01,245.70,11.600
1939-06-01,230.03,10.860
1939-07-01,255.02,12.040
1939-08-01,236.80,11.180
1939-09-01,269.90,13.020
1939-10-01,267.86,12.830
1939-11-01,254.71,12.200
1939-12-01,260.77,12.490
1940-01-01,253.39,12.050
1940-02-01,253.25,12.130
1940-03-01,255.76,12.250
1940-04-01,254.50,12.190
1940-05-01,193.54,9.270
1940-06-01,206.89,9.980
1940-07-01,214.83,10.290
1940-08-01,220.47,10.560
1940-09-01,222.56,10.660
1940-10-01,231.33,11.080
1940-11-01,221.52,10.610
1940-12-01,219.32,10.580
1941-01-01,208.75,10.070
1941-02-01,205.64,9.920
1941-03-01,205.02,9.960
1941-04-01,190.30,9.310
1941-05-01,189.79,9.350
1941-06-01,195.86,9.850
1941-07-01,206.59,10.390
1941-08-01,202.06,10.300
1941-09-01,197.44,10.200
1941-10-01,181.49,9.500
1941-11-01,172.72,9.100
1941-12-01,163.88,8.690
1942-01-01,164.02,8.810
1942-02-01,158.92,8.590
1942-03-01,146.33,8.010
1942-04-01,139.07,7.660
1942-05-01,146.15,8.150
1942-06-01,148.84,8.300
1942-07-01,152.56,8.560
1942-08-01,152.70,8.620
1942-09-01,156.78,8.850
1942-10-01,164.88,9.420
1942-11-01,161.64,9.290
1942-12-01,168.98,9.770
1943-01-01,181.09,10.470
1943-02-01,190.26,11.000
1943-03-01,196.79,11.580
1943-04-01,194.70,11.590
1943-05-01,202.27,12.110
1943-06-01,206.28,12.350
1943-07-01,196.21,11.680
1943-08-01,199.37,11.800
1943-09-01,202.93,12.080
1943-10-01,200.24,11.920
1943-11-01,185.12,11.020
1943-12-01,196.04,11.670
1944-01-01,199.07,11.850
1944-02-01,198.56,11.820
1944-03-01,201.92,12.020
1944-04-01,198.26,11.870
1944-05-01,206.28,12.350
1944-06-01,215.57,12.980
1944-07-01,209.89,12.710
1944-08-01,211.71,12.820
1944-09-01,211.05,12.780
1944-10-01,211.05,12.780
1944-11-01,211.87,12.830
1944-12-01,218.07,13.280
1945-01-01,221.19,13.470
1945-02-01,234.82,14.300
1945-03-01,223.98,13.640
1945-04-01,243.69,14.840
1945-05-01,245.10,15.010
1945-06-01,241.59,14.960
1945-07-01,236.74,14.660
1945-08-01,250.47,15.510
1945-09-01,260.97,16.160
1945-10-01,268.88,16.650
1945-11-01,277.60,17.190
1945-12-01,278.80,17.360
1946-01-01,298.23,18.570
1946-02-01,279.05,17.280
1946-03-01,288.77,18.080
1946-04-01,298.02,18.760
1946-05-01,303.04,19.180
1946-06-01,288.08,18.430
1946-07-01,265.13,17.960
1946-08-01,240.93,16.650
1946-09-01,214.35,14.960
1946-10-01,208.55,14.840
1946-11-01,201.32,14.670
1946-12-01,208.00,15.300
1947-01-01,212.90,15.660
1947-02-01,209.77,15.430
1947-03-01,202.47,15.170
1947-04-01,194.60,14.580
1947-05-01,192.86,14.450
1947-06-01,202.08,15.210
1947-07-01,207.50,15.760
1947-08-01,199.02,15.320
1947-09-01,192.03,15.110
1947-10-01,196.10,15.430
1947-11-01,189.68,14.990
1947-12-01,191.11,15.300
1948-01-01,181.17,14.690
1948-02-01,174.13,14.000
1948-03-01,188.36,15.080
1948-04-01,190.11,15.480
1948-05-01,204.12,16.690
1948-06-01,203.02,16.740
1948-07-01,189.87,15.850
1948-08-01,190.52,15.970
1948-09-01,184.80,15.490
1948-10-01,198.13,16.540
1948-11-01,178.15,14.750
1948-12-01,184.35,15.200
1949-01-01,185.36,15.220
1949-02-01,179.55,14.620
1949-03-01,184.95,15.060
1949-04-01,180.27,14.740
1949-05-01,174.27,14.190
1949-06-01,173.18,14.160
1949-07-01,185.49,15.040
1949-08-01,186.92,15.220
1949-09-01,190.54,15.580
1949-10-01,197.82,16.040
1949-11-01,197.23,16.060
1949-12-01,207.57,16.760
1950-01-01,212.07,17.050
1950-02-01,214.18,17.220
1950-03-01,214.14,17.290
1950-04-01,223.80,18.070
1950-05-01,231.61,18.780
1950-06-01,217.25,17.690
1950-07-01,216.36,17.840
1950-08-01,221.57,18.420
1950-09-01,232.99,19.450
1950-10-01,232.06,19.530
1950-11-01,230.88,19.510
1950-12-01,238.63,20.410
1951-01-01,249.26,21.660
1951-02-01,247.93,21.800
1951-03-01,242.44,21.400
1951-04-01,254.11,22.430
1951-05-01,242.87,21.520
1951-06-01,236.55,20.960
1951-07-01,252.81,22.400
1951-08-01,262.74,23.280
1951-09-01,260.49,23.260
1951-10-01,255.92,22.940
1951-11-01,253.33,22.880
1951-12-01,262.18,23.770
1952-01-01,266.26,24.140
1952-02-01,258.51,23.260
1952-03-01,270.85,24.370
1952-04-01,258.20,23.320
1952-05-01,264.18,23.860
1952-06-01,275.31,24.960
1952-07-01,278.05,25.400
1952-08-01,274.00,25.030
1952-09-01,268.64,24.540
1952-10-01,268.42,24.520
1952-11-01,280.90,25.660
1952-12-01,290.86,26.570
1953-01-01,289.89,26.380
1953-02-01,285.68,25.900
1953-03-01,277.91,25.290
1953-04-01,270.55,24.620
1953-05-01,268.64,24.540
1953-06-01,263.29,24.140
1953-07-01,269.95,24.750
1953-08-01,253.40,23.320
1953-09-01,253.72,23.350
1953-10-01,265.67,24.540
1953-11-01,269.04,24.760
1953-12-01,269.59,24.810
1954-01-01,283.39,26.080
1954-02-01,284.15,26.150
1954-03-01,292.73,26.940
1954-04-01,308.23,28.260
1954-05-01,317.18,29.190
1954-06-01,317.40,29.210
1954-07-01,335.54,30.880
1954-08-01,324.13,29.830
1954-09-01,352.41,32.310
1954-10-01,345.53,31.680
1954-11-01,373.46,34.240
1954-12-01,393.87,35.980
1955-01-01,400.99,36.630
1955-02-01,402.41,36.760
1955-03-01,400.44,36.580
1955-04-01,415.55,37.960
1955-05-01,415.00,37.910
1955-06-01,449.16,41.030
1955-07-01,474.67,43.520
1955-08-01,470.96,43.180
1955-09-01,474.52,43.670
1955-10-01,460.07,42.340
1955-11-01,494.51,45.510
1955-12-01,496.05,45.480
1956-01-01,477.94,43.820
1956-02-01,494.52,45.340
1956-03-01,528.77,48.480
1956-04-01,525.70,48.380
1956-05-01,489.34,45.200
1956-06-01,504.74,46.970
1956-07-01,526.89,49.390
1956-08-01,508.69,47.510
1956-09-01,483.79,45.350
1956-10-01,484.47,45.580
1956-11-01,479.16,45.080
1956-12-01,494.24,46.670
1957-01-01,473.58,44.720
1957-02-01,456.48,43.260
1957-03-01,463.77,44.110
1957-04-01,479.22,45.740
1957-05-01,495.12,47.430
1957-06-01,492.74,47.370
1957-07-01,494.81,47.910
1957-08-01,467.03,45.220
1957-09-01,438.11,42.420
1957-10-01,424.07,41.060
1957-11-01,429.38,41.720
1957-12-01,411.58,39.990
1958-01-01,426.17,41.700
1958-02-01,417.38,40.840
1958-03-01,427.27,42.100
1958-04-01,439.35,43.440
1958-05-01,445.93,44.090
1958-06-01,457.56,45.240
1958-07-01,475.63,47.190
1958-08-01,482.94,47.750
1958-09-01,506.31,50.060
1958-10-01,519.15,51.330
1958-11-01,528.95,52.480
1958-12-01,558.39,55.210
1959-01-01,558.88,55.450
1959-02-01,560.42,55.410
1959-03-01,560.72,55.440
1959-04-01,580.45,57.590
1959-05-01,591.44,58.680
1959-06-01,587.33,58.470
1959-07-01,605.71,60.510
1959-08-01,596.60,59.600
1959-09-01,567.43,56.880
1959-10-01,571.86,57.520
1959-11-01,579.42,58.280
1959-12-01,595.43,59.890
1960-01-01,554.77,55.610
1960-02-01,557.95,56.120
1960-03-01,550.19,55.340
1960-04-01,538.70,54.370
1960-05-01,553.16,55.830
1960-06-01,562.09,56.920
1960-07-01,548.16,55.510
1960-08-01,562.48,56.960
1960-09-01,528.51,53.520
1960-10-01,523.70,53.390
1960-11-01,544.79,55.540
1960-12-01,570.00,58.110
1961-01-01,606.00,61.780
1961-02-01,622.28,63.440
1961-03-01,638.17,65.060
1961-04-01,640.63,65.310
1961-05-01,652.89,66.560
1961-06-01,634.05,64.640
1961-07-01,650.44,66.760
1961-08-01,665.45,68.070
1961-09-01,650.15,66.730
1961-10-01,668.56,68.620
1961-11-01,694.87,71.320
1961-12-01,697.11,71.550
1962-01-01,670.71,68.840
1962-02-01,679.38,69.960
1962-03-01,675.40,69.550
1962-04-01,631.46,65.240
1962-05-01,577.16,59.630
1962-06-01,529.93,54.750
1962-07-01,561.74,58.230
1962-08-01,570.33,59.120
1962-09-01,541.04,56.270
1962-10-01,543.44,56.520
1962-11-01,598.63,62.260
1962-12-01,606.71,63.100
1963-01-01,636.51,66.200
1963-02-01,618.15,64.290
1963-03-01,637.94,66.570
1963-04-01,668.89,69.800
1963-05-01,678.48,70.800
1963-06-01,662.62,69.370
1963-07-01,658.19,69.130
1963-08-01,690.27,72.500
1963-09-01,682.66,71.700
1963-10-01,702.35,74.010
1963-11-01,694.95,73.230
1963-12-01,709.61,75.020
1964-01-01,728.72,77.040
1964-02-01,735.91,77.800
1964-03-01,747.07,78.980
1964-04-01,751.61,79.460
1964-05-01,760.22,80.370
1964-06-01,770.26,81.690
1964-07-01,781.81,83.180
1964-08-01,771.58,81.830
1964-09-01,791.21,84.180
1964-10-01,797.60,84.860
1964-11-01,790.85,84.420
1964-12-01,793.94,84.750
1965-01-01,820.26,87.560
1965-02-01,819.04,87.430
1965-03-01,804.65,86.160
1965-04-01,829.52,89.110
1965-05-01,823.10,88.420
1965-06-01,778.11,84.120
1965-07-01,788.56,85.250
1965-08-01,806.32,87.170
1965-09-01,832.13,89.960
1965-10-01,852.20,92.420
1965-11-01,844.74,91.610
1965-12-01,849.62,92.430
1966-01-01,853.75,92.880
1966-02-01,833.20,91.220
1966-03-01,812.53,89.230
1966-04-01,824.00,91.060
1966-05-01,779.39,86.130
1966-06-01,764.44,84.740
1966-07-01,751.90,83.600
1966-08-01,689.20,77.100
1966-09-01,684.37,76.560
1966-10-01,712.50,80.200
1966-11-01,714.72,80.450
1966-12-01,713.65,80.330
1967-01-01,769.44,86.610
1967-02-01,770.95,86.780
1967-03-01,798.90,90.200
1967-04-01,830.20,94.010
1967-05-01,784.26,89.080
1967-06-01,795.64,90.640
1967-07-01,829.16,94.750
1967-08-01,817.01,93.640
1967-09-01,841.28,96.710
1967-10-01,809.19,93.300
1967-11-01,812.91,94.000
1967-12-01,831.76,96.470
1968-01-01,790.68,92.240
1968-02-01,763.76,89.360
1968-03-01,768.68,90.200
1968-04-01,828.12,97.460
1968-05-01,836.02,98.680
1968-06-01,838.86,99.580
1968-07-01,818.57,97.740
1968-08-01,825.58,98.860
1968-09-01,855.04,102.670
1968-10-01,856.23,103.410
1968-11-01,894.81,108.370
1968-12-01,855.18,103.860
1969-01-01,845.82,103.010
1969-02-01,801.23,98.130
1969-03-01,821.93,101.510
1969-04-01,834.91,103.690
1969-05-01,830.78,103.460
1969-06-01,780.31,97.710
1969-07-01,729.41,91.830
1969-08-01,754.53,95.510
1969-09-01,733.69,93.120
1969-10-01,761.03,97.120
1969-11-01,731.25,93.810
1969-12-01,713.74,92.060
1970-01-01,657.46,85.020
1970-02-01,688.43,89.500
1970-03-01,685.85,89.630
1970-04-01,618.90,81.520
1970-05-01,579.64,76.550
1970-06-01,547.80,72.720
1970-07-01,584.98,78.050
1970-08-01,610.99,81.520
1970-09-01,628.63,84.300
1970-10-01,617.63,83.250
1970-11-01,643.62,87.200
1970-12-01,676.75,92.150
1971-01-01,704.14,95.880
1971-02-01,708.79,96.750
1971-03-01,732.97,100.310
1971-04-01,757.69,103.950
1971-05-01,722.62,99.630
1971-06-01,710.54,98.700
1971-07-01,686.46,95.580
1971-08-01,709.45,99.030
1971-09-01,704.51,98.340
1971-10-01,673.46,94.230
1971-11-01,671.75,93.990
1971-12-01,726.06,102.090
1972-01-01,739.22,103.940
1972-02-01,754.20,106.570
1972-03-01,756.83,107.200
1972-04-01,758.32,107.670
1972-05-01,769.56,109.530
1972-06-01,750.94,107.140
1972-07-01,749.15,107.390
1972-08-01,773.08,111.090
1972-09-01,767.55,110.550
1972-10-01,771.02,111.580
1972-11-01,804.32,116.670
1972-12-01,811.95,118.050
1973-01-01,796.08,116.030
1973-02-01,760.88,111.680
1973-03-01,752.76,111.520
1973-04-01,717.13,106.970
1973-05-01,698.76,104.950
1973-06-01,689.47,104.260
1973-07-01,714.04,108.220
1973-08-01,675.64,104.250
1973-09-01,701.22,108.430
1973-10-01,694.14,108.290
1973-11-01,611.07,95.960
1973-12-01,617.20,97.550
1974-01-01,605.69,96.570
1974-02-01,595.89,96.220
1974-03-01,574.69,93.980
1974-04-01,549.99,90.310
1974-05-01,524.90,87.280
1974-06-01,512.99,86.000
1974-07-01,469.28,79.310
1974-08-01,421.79,72.150
1974-09-01,367.07,63.540
1974-10-01,422.71,73.900
1974-11-01,397.15,69.970
1974-12-01,386.13,68.560
1975-01-01,431.86,76.980
1975-02-01,454.29,81.590
1975-03-01,462.31,83.360
1975-04-01,482.33,87.300
1975-05-01,500.78,91.150
1975-06-01,519.07,95.190
1975-07-01,478.63,88.750
1975-08-01,467.68,86.880
1975-09-01,448.96,83.870
1975-10-01,474.05,89.040
1975-11-01,482.29,91.240
1975-12-01,475.03,90.190
1976-01-01,530.22,100.860
1976-02-01,522.28,99.710
1976-03-01,537.38,102.770
1976-04-01,529.54,101.640
1976-05-01,518.23,100.180
1976-06-01,536.62,104.280
1976-07-01,529.51,103.440
1976-08-01,524.02,102.910
1976-09-01,534.09,105.240
1976-10-01,519.44,102.900
1976-11-01,514.58,102.100
1976-12-01,539.66,107.460
1977-01-01,509.84,102.030
1977-02-01,493.71,99.820
1977-03-01,483.54,98.420
1977-04-01,479.60,98.440
1977-05-01,465.89,96.120
1977-06-01,483.81,100.480
1977-07-01,473.69,98.850
1977-08-01,462.17,96.770
1977-09-01,459.58,96.530
1977-10-01,438.15,92.340
1977-11-01,447.79,94.830
1977-12-01,447.64,95.100
1978-01-01,417.42,89.250
1978-02-01,404.47,87.040
1978-03-01,411.26,89.210
1978-04-01,442.90,96.830
1978-05-01,440.69,97.240
1978-06-01,428.26,95.530
1978-07-01,447.93,100.680
1978-08-01,457.47,103.290
1978-09-01,450.66,102.540
1978-10-01,405.76,93.150
1978-11-01,410.71,94.700
1978-12-01,415.00,96.110
1979-01-01,427.70,99.930
1979-02-01,407.26,96.280
1979-03-01,425.46,101.590
1979-04-01,421.29,101.760
1979-05-01,405.04,99.080
1979-06-01,416.07,102.910
1979-07-01,415.14,103.810
1979-08-01,433.02,109.320
1979-09-01,428.32,109.320
1979-10-01,395.77,101.820
1979-11-01,408.82,106.160
1979-12-01,411.36,107.940
1980-01-01,428.90,114.160
1980-02-01,421.11,113.660
1980-03-01,372.53,102.090
1980-04-01,383.60,106.290
1980-05-01,397.46,111.240
1980-06-01,403.72,114.240
1980-07-01,429.98,121.670
1980-08-01,429.43,122.380
1980-09-01,436.60,125.460
1980-10-01,439.39,127.470
1980-11-01,480.44,140.520
1980-12-01,459.82,135.760
1981-01-01,435.29,129.550
1981-02-01,436.47,131.270
1981-03-01,449.21,136.000
1981-04-01,435.75,132.810
1981-05-01,431.58,132.590
1981-06-01,423.28,131.210
1981-07-01,417.77,130.920
1981-08-01,388.88,122.790
1981-09-01,364.34,116.180
1981-10-01,381.52,121.890
1981-11-01,394.09,126.350
1981-12-01,381.13,122.550
1982-01-01,373.24,120.400
1982-02-01,349.51,113.110
1982-03-01,346.29,111.960
1982-04-01,358.64,116.440
1982-05-01,341.35,111.880
1982-06-01,330.25,109.610
1982-07-01,321.06,107.090
1982-08-01,357.57,119.510
1982-09-01,359.57,120.420
1982-10-01,398.08,133.720
1982-11-01,413.23,138.530
1982-12-01,421.22,140.640
1983-01-01,434.30,145.300
1983-02-01,442.11,148.060
1983-03-01,456.74,152.960
1983-04-01,487.37,164.430
1983-05-01,478.56,162.390
1983-06-01,492.53,167.640
1983-07-01,475.65,162.560
1983-08-01,479.55,164.400
1983-09-01,482.10,166.070
1983-10-01,473.31,163.550
1983-11-01,480.56,166.400
1983-12-01,475.82,164.930
1984-01-01,468.66,163.410
1984-02-01,448.25,157.060
1984-03-01,453.50,159.180
1984-04-01,453.74,160.050
1984-05-01,425.60,150.550
1984-06-01,431.81,153.180
1984-07-01,423.05,150.660
1984-08-01,466.20,166.680
1984-09-01,462.42,166.100
1984-10-01,461.07,166.090
1984-11-01,454.10,163.580
1984-12-01,464.26,167.240
1985-01-01,497.75,179.630
1985-02-01,499.69,181.180
1985-03-01,496.27,180.660
1985-04-01,491.66,179.830
1985-05-01,516.33,189.550
1985-06-01,521.26,191.850
1985-07-01,517.58,190.920
1985-08-01,510.43,188.630
1985-09-01,491.43,182.080
1985-10-01,510.43,189.820
1985-11-01,542.22,202.170
1985-12-01,564.96,211.280
1986-01-01,564.82,211.780
1986-02-01,606.78,226.920
1986-03-01,641.92,238.900
1986-04-01,633.78,235.520
1986-05-01,663.89,247.350
1986-06-01,669.49,250.840
1986-07-01,630.20,236.120
1986-08-01,674.06,252.930
1986-09-01,613.46,231.320
1986-10-01,646.55,243.980
1986-11-01,659.93,249.220
1986-12-01,640.54,242.170
1987-01-01,720.56,274.080
1987-02-01,744.32,284.200
1987-03-01,760.46,291.700
1987-04-01,748.01,288.360
1987-05-01,749.62,290.100
1987-06-01,782.80,304.000
1987-07-01,818.64,318.660
1987-08-01,842.64,329.800
1987-09-01,818.09,321.830
1987-10-01,638.29,251.790
1987-11-01,583.35,230.300
1987-12-01,625.85,247.080
1988-01-01,649.36,257.070
1988-02-01,674.91,267.820
1988-03-01,649.56,258.890
1988-04-01,652.28,261.330
1988-05-01,652.25,262.160
1988-06-01,677.46,273.500
1988-07-01,671.07,272.020
1988-08-01,642.29,261.520
1988-09-01,663.46,271.910
1988-10-01,678.46,278.970
1988-11-01,665.09,273.700
1988-12-01,673.75,277.720
1989-01-01,718.09,297.470
1989-02-01,694.42,288.860
1989-03-01,704.74,294.870
1989-04-01,735.09,309.640
1989-05-01,756.75,320.520
1989-06-01,748.84,317.980
1989-07-01,813.29,346.080
1989-08-01,824.50,351.450
1989-09-01,816.31,349.150
1989-10-01,792.02,340.360
1989-11-01,803.39,345.990
1989-12-01,819.18,353.400
1990-01-01,754.91,329.080
1990-02-01,758.04,331.890
1990-03-01,772.00,339.940
1990-04-01,750.25,330.800
1990-05-01,817.10,361.230
1990-06-01,805.55,358.020
1990-07-01,798.49,356.150
1990-08-01,716.41,322.560
1990-09-01,674.23,306.050
1990-10-01,665.46,304.000
1990-11-01,704.05,322.220
1990-12-01,721.53,330.220
1991-01-01,747.02,343.930
1991-02-01,795.81,367.070
1991-03-01,812.35,375.220
1991-04-01,811.49,375.340
1991-05-01,840.47,389.830
1991-06-01,797.62,371.160
1991-07-01,832.24,387.810
1991-08-01,846.22,395.430
1991-09-01,826.14,387.860
1991-10-01,834.74,392.450
1991-11-01,795.84,375.220
1991-12-01,884.23,417.090
1992-01-01,865.39,408.780
1992-02-01,870.38,412.700
1992-03-01,846.94,403.690
1992-04-01,869.32,414.950
1992-05-01,868.91,415.350
1992-06-01,850.97,408.140
1992-07-01,882.36,424.210
1992-08-01,858.70,414.030
1992-09-01,864.43,417.800
1992-10-01,862.90,418.680
1992-11-01,887.72,431.350
1992-12-01,897.56,435.710
1993-01-01,899.50,438.780
1993-02-01,905.83,443.380
1993-03-01,919.15,451.670
1993-04-01,893.59,440.190
1993-05-01,912.54,450.190
1993-06-01,911.87,450.530
1993-07-01,907.02,448.130
1993-08-01,935.93,463.560
1993-09-01,924.29,458.930
1993-10-01,938.47,467.830
1993-11-01,925.89,461.790
1993-12-01,935.23,466.450
1994-01-01,962.74,481.610
1994-02-01,930.54,467.140
1994-03-01,885.30,445.770
1994-04-01,894.15,450.910
1994-05-01,904.78,456.500
1994-06-01,877.43,444.270
1994-07-01,902.77,458.260
1994-08-01,932.91,475.490
1994-09-01,905.06,462.710
1994-10-01,923.44,472.350
1994-11-01,886.06,453.690
1994-12-01,896.95,459.270
1995-01-01,914.97,470.420
1995-02-01,944.07,487.390
1995-03-01,966.87,500.710
1995-04-01,990.30,514.710
1995-05-01,1024.13,533.400
1995-06-01,1044.29,544.750
1995-07-01,1077.47,562.060
1995-08-01,1074.31,561.880
1995-09-01,1115.05,584.410
1995-10-01,1106.01,581.500
1995-11-01,1152.02,605.370
1995-12-01,1172.73,615.930
1996-01-01,1203.99,636.020
1996-02-01,1208.49,640.430
1996-03-01,1211.60,645.500
1996-04-01,1223.30,654.170
1996-05-01,1249.25,669.120
1996-06-01,1250.72,670.630
1996-07-01,1191.59,639.950
1996-08-01,1211.40,651.990
1996-09-01,1272.94,687.330
1996-10-01,1301.93,705.270
1996-11-01,1395.19,757.020
1996-12-01,1365.18,740.740
1997-01-01,1444.18,786.160
1997-02-01,1447.99,790.820
1997-03-01,1383.26,757.120
1997-04-01,1462.45,801.340
1997-05-01,1548.96,848.280
1997-06-01,1613.61,885.140
1997-07-01,1737.80,954.310
1997-08-01,1635.24,899.470
1997-09-01,1717.42,947.280
1997-10-01,1654.55,914.620
1997-11-01,1729.27,955.400
1997-12-01,1758.42,970.430
1998-01-01,1773.33,980.280
1998-02-01,1894.06,1049.340
1998-03-01,1985.35,1101.750
1998-04-01,2000.04,1111.750
1998-05-01,1958.02,1090.820
1998-06-01,2032.98,1133.840
1998-07-01,2007.12,1120.670
1998-08-01,1712.57,957.280
1998-09-01,1817.40,1017.010
1998-10-01,1957.83,1098.670
1998-11-01,2073.59,1163.630
1998-12-01,2191.72,1229.230
1999-01-01,2276.48,1279.640
1999-02-01,2200.51,1238.330
1999-03-01,2278.16,1286.370
1999-04-01,2348.58,1335.180
1999-05-01,2289.94,1301.840
1999-06-01,2414.60,1372.710
1999-07-01,2329.25,1328.720
1999-08-01,2309.40,1320.410
1999-09-01,2233.20,1282.710
1999-10-01,2368.77,1362.930
1999-11-01,2412.54,1388.910
1999-12-01,2552.09,1469.250
2000-01-01,2415.20,1394.460
2000-02-01,2351.61,1366.420
2000-03-01,2558.08,1498.580
2000-04-01,2477.85,1452.430
2000-05-01,2420.70,1420.600
2000-06-01,2465.55,1454.600
2000-07-01,2420.96,1430.830
2000-08-01,2567.91,1517.680
2000-09-01,2417.65,1436.510
2000-10-01,2401.39,1429.400
2000-11-01,2207.80,1314.950
2000-12-01,2218.07,1320.280
2001-01-01,2279.87,1366.010
2001-02-01,2062.02,1239.940
2001-03-01,1924.99,1160.330
2001-04-01,2064.11,1249.460
2001-05-01,2065.82,1255.820
2001-06-01,2010.43,1224.380
2001-07-01,1994.90,1211.230
2001-08-01,1867.01,1133.580
2001-09-01,1706.10,1040.940
2001-10-01,1743.34,1059.780
2001-11-01,1877.81,1139.450
2001-12-01,1898.92,1148.080
2002-01-01,1864.83,1130.200
2002-02-01,1819.46,1106.730
2002-03-01,1875.98,1147.390
2002-04-01,1751.07,1076.920
2002-05-01,1735.17,1067.140
2002-06-01,1608.46,989.820
2002-07-01,1479.56,911.620
2002-08-01,1482.20,916.070
2002-09-01,1316.68,815.280
2002-10-01,1427.85,885.760
2002-11-01,1509.33,936.310
2002-12-01,1421.79,879.820
2003-01-01,1376.82,855.700
2003-02-01,1342.48,841.150
2003-03-01,1346.06,848.180
2003-04-01,1457.90,916.920
2003-05-01,1535.00,963.590
2003-06-01,1550.43,974.500
2003-07-01,1573.60,990.310
2003-08-01,1595.68,1008.010
2003-09-01,1571.64,995.970
2003-10-01,1660.12,1050.710
2003-11-01,1676.19,1058.200
2003-12-01,1763.51,1111.920
2004-01-01,1784.92,1131.130
2004-02-01,1797.56,1144.940
2004-03-01,1756.89,1126.210
2004-04-01,1721.85,1107.300
2004-05-01,1732.57,1120.680
2004-06-01,1758.03,1140.840
2004-07-01,1699.95,1101.720
2004-08-01,1702.74,1104.240
2004-09-01,1715.34,1114.580
2004-10-01,1730.34,1130.200
2004-11-01,1795.94,1173.820
2004-12-01,1861.51,1211.920
2005-01-01,1810.89,1181.270
2005-02-01,1834.29,1203.600
2005-03-01,1785.05,1180.590
2005-04-01,1737.59,1156.850
2005-05-01,1792.02,1191.500
2005-06-01,1790.57,1191.330
2005-07-01,1846.33,1234.180
2005-08-01,1815.85,1220.330
2005-09-01,1806.35,1228.810
2005-10-01,1770.68,1207.010
2005-11-01,1847.98,1249.480
2005-12-01,1853.71,1248.290
2006-01-01,1886.84,1280.080
2006-02-01,1883.85,1280.660
2006-03-01,1894.39,1294.870
2006-04-01,1901.70,1310.610
2006-05-01,1832.74,1270.090
2006-06-01,1830.36,1270.200
2006-07-01,1833.28,1276.660
2006-08-01,1869.68,1303.820
2006-09-01,1924.96,1335.850
2006-10-01,1995.26,1377.940
2006-11-01,2032.31,1400.630
2006-12-01,2053.70,1418.300
2007-01-01,2076.82,1438.240
2007-02-01,2020.19,1406.820
2007-03-01,2021.88,1420.860
2007-04-01,2096.07,1482.370
2007-05-01,2152.05,1530.620
2007-06-01,2109.20,1503.350
2007-07-01,2041.74,1455.270
2007-08-01,2072.43,1473.990
2007-09-01,2140.50,1526.750
2007-10-01,2167.58,1549.380
2007-11-01,2060.27,1481.140
2007-12-01,2043.96,1468.360
2008-01-01,1909.29,1378.550
2008-02-01,1837.60,1330.630
2008-03-01,1810.78,1322.700
2008-04-01,1885.79,1385.590
2008-05-01,1889.11,1400.380
2008-06-01,1710.08,1280.000
2008-07-01,1684.35,1267.380
2008-08-01,1711.30,1282.830
2008-09-01,1558.26,1166.360
2008-10-01,1307.81,968.750
2008-11-01,1233.23,896.240
2008-12-01,1255.52,903.250
2009-01-01,1143.02,825.880
2009-02-01,1012.95,735.090
2009-03-01,1096.27,797.870
2009-04-01,1196.62,872.810
2009-05-01,1256.46,919.140
2009-06-01,1245.68,919.320
2009-07-01,1340.01,987.480
2009-08-01,1381.92,1020.620
2009-09-01,1430.23,1057.080
2009-10-01,1400.93,1036.190
2009-11-01,1480.20,1095.630
2009-12-01,1509.85,1115.100
2010-01-01,1448.65,1073.870
2010-02-01,1489.96,1104.490
2010-03-01,1570.54,1169.430
2010-04-01,1591.35,1186.690
2010-05-01,1459.81,1089.410
2010-06-01,1382.18,1030.710
2010-07-01,1477.25,1101.600
2010-08-01,1405.05,1049.330
2010-09-01,1526.93,1141.200
2010-10-01,1580.84,1183.260
2010-11-01,1577.21,1180.550
2010-12-01,1677.69,1257.640
2011-01-01,1706.68,1286.120
2011-02-01,1753.26,1327.220
2011-03-01,1734.19,1325.830
2011-04-01,1772.69,1363.610
2011-05-01,1740.69,1345.200
2011-06-01,1710.23,1320.640
2011-07-01,1672.21,1292.280
2011-08-01,1572.37,1218.890
2011-09-01,1457.27,1131.420
2011-10-01,1618.01,1253.300
2011-11-01,1611.07,1246.960
2011-12-01,1628.59,1257.600
2012-01-01,1693.01,1312.410
2012-02-01,1753.53,1365.680
2012-03-01,1794.39,1408.470
2012-04-01,1775.35,1397.910
2012-05-01,1666.74,1310.330
2012-06-01,1735.39,1362.160
2012-07-01,1760.01,1379.320
2012-08-01,1784.95,1406.580
2012-09-01,1819.57,1440.670
2012-10-01,1784.97,1412.160
2012-11-01,1798.55,1416.180
2012-12-01,1815.54,1426.190
2013-01-01,1901.10,1498.110
2013-02-01,1906.98,1514.680
2013-03-01,1970.90,1569.190
2013-04-01,2008.15,1597.570
2013-05-01,2046.58,1630.740
2013-06-01,2011.06,1606.280
2013-07-01,2108.85,1685.730
2013-08-01,2041.21,1632.970
2013-09-01,2098.57,1681.550
2013-10-01,2199.19,1756.540
2013-11-01,2264.49,1805.810
2013-12-01,2317.84,1848.360
2014-01-01,2228.24,1782.590
2014-02-01,2315.02,1859.450
2014-03-01,2316.08,1872.340
2014-04-01,2322.91,1883.950
2014-05-01,2364.07,1923.570
2014-06-01,2403.24,1960.230
2014-07-01,2368.93,1930.670
2014-08-01,2462.14,2003.370
2014-09-01,2421.97,1972.290
2014-10-01,2484.22,2018.050
2014-11-01,2559.64,2067.560
2014-12-01,2563.33,2058.900
2015-01-01,2495.73,1994.990
2015-02-01,2620.10,2104.500
2015-03-01,2560.05,2067.890
2015-04-01,2575.60,2085.510
2015-05-01,2589.98,2107.390
2015-06-01,2527.31,2063.110
2015-07-01,2577.20,2103.840
2015-08-01,2419.86,1972.180
2015-09-01,2357.80,1920.030
2015-10-01,2555.53,2079.360
2015-11-01,2563.07,2080.410
2015-12-01,2526.31,2043.940
2016-01-01,2394.26,1940.240
2016-02-01,2382.44,1932.230
2016-03-01,2527.30,2059.740
2016-04-01,2523.80,2065.300
2016-05-01,2552.00,2096.960
2016-06-01,2545.92,2098.860
2016-07-01,2640.92,2173.600
2016-08-01,2635.53,2170.950
2016-09-01,2625.77,2168.270
2016-10-01,2570.52,2126.150
2016-11-01,2662.76,2198.810
2016-12-01,2711.22,2238.830
2017-01-01,2743.76,2278.870
2017-02-01,2836.37,2363.640
2017-03-01,2832.90,2362.720
2017-04-01,2849.12,2384.200
2017-05-01,2879.69,2411.800
2017-06-01,2891.13,2423.410
2017-07-01,2949.54,2470.300
2017-08-01,2943.74,2471.650
2017-09-01,2982.92,2519.360
2017-10-01,3051.68,2575.260
2017-11-01,3137.38,2647.580
2017-12-01,3170.90,2673.610
2018-01-01,3329.27,2823.810
2018-02-01,3186.04,2713.830
2018-03-01,3092.46,2640.870
2018-04-01,3090.27,2648.050
2018-05-01,3143.52,2705.270
2018-06-01,3153.31,2718.370
2018-07-01,3266.90,2816.290
2018-08-01,3362.86,2901.520
2018-09-01,3374.39,2913.980
2018-10-01,3134.77,2711.740
2018-11-01,3201.80,2760.170
2018-12-01,2915.47,2506.850
2019-01-01,3139.46,2704.100
2019-02-01,3218.87,2784.490
2019-03-01,3259.56,2834.400
2019-04-01,3370.03,2945.830
2019-05-01,3140.10,2752.060
2019-06-01,3356.55,2941.760
2019-07-01,3394.65,2980.380
2019-08-01,3333.24,2926.460
2019-09-01,3387.53,2976.740
2019-10-01,3450.67,3037.560
2019-11-01,3568.15,3140.980
2019-12-01,3673.40,3230.780
2020-01-01,3654.51,3225.520
2020-02-01,3338.27,2954.220
2020-03-01,2925.76,2584.590
2020-04-01,3320.17,2912.430
2020-05-01,3470.51,3044.310
2020-06-01,3515.73,3100.290
2020-07-01,3689.82,3271.120
2020-08-01,3937.85,3500.310
2020-09-01,3776.65,3363.000
2020-10-01,3672.17,3269.960
2020-11-01,4067.09,3621.630
2020-12-01,4214.31,3756.070
2021-01-01,4148.81,3714.240
2021-02-01,4234.19,3811.150
2021-03-01,4386.07,3972.890
2021-04-01,4578.38,4181.170
2021-05-01,4565.66,4204.110
2021-06-01,4624.11,4297.500
2021-07-01,4707.32,4395.260
2021-08-01,4830.22,4522.680
2021-09-01,4591.84,4307.540
2021-10-01,4867.89,4605.380
2021-11-01,4804.48,4567.000
2021-12-01,4994.96,4766.180
2022-01-01,4696.17,4515.550
2022-02-01,4505.16,4373.940
2022-03-01,4607.43,4530.410
2022-04-01,4177.38,4131.930
2022-05-01,4132.15,4132.150
2022-06-01,3911.74,3911.740
